code/cpu_wavedata.vcd
$date
	Fri Dec 24 18:08:19 2021
$end
$version
	Icarus Verilog
$end
$timescale
	100ps
$end
$scope module cpu_tb $end
$var wire 1 ! BUSYWAIT $end
$var wire 8 " WRITEDATA [7:0] $end
$var wire 1 # WRITE $end
$var wire 8 $ READDATA [7:0] $end
$var wire 1 % READ $end
$var wire 32 & PC [31:0] $end
$var wire 32 ' MEM_WRITEDATA [31:0] $end
$var wire 1 ( MEM_WRITE $end
$var wire 32 ) MEM_READDATA [31:0] $end
$var wire 1 * MEM_READ $end
$var wire 1 + MEM_BUSYWAIT $end
$var wire 6 , MEM_ADDRESS [5:0] $end
$var wire 32 - INSTRUCTION [31:0] $end
$var wire 1 . IM_READ $end
$var wire 128 / IM_INS [127:0] $end
$var wire 1 0 IM_BUSYWAIT $end
$var wire 6 1 IM_ADDRESS [5:0] $end
$var wire 1 2 IC_BUSYWAIT $end
$var wire 1 3 DC_BUSYWAIT $end
$var wire 8 4 ADDRESS [7:0] $end
$var reg 1 5 CLK $end
$var reg 1 6 RESET $end
$scope module datacache $end
$var wire 1 5 clock $end
$var wire 1 7 hit $end
$var wire 1 6 reset $end
$var wire 1 8 tb1 $end
$var wire 1 9 tb2 $end
$var wire 1 : tb3 $end
$var wire 32 ; mreaddata [31:0] $end
$var wire 1 + mbusywait $end
$var wire 8 < cwritedata [7:0] $end
$var wire 1 # cwrite $end
$var wire 1 % cread $end
$var wire 8 = caddress [7:0] $end
$var reg 1 3 cbusywait $end
$var reg 8 > creaddata [7:0] $end
$var reg 32 ? data [31:0] $end
$var reg 1 @ dirty $end
$var reg 3 A index [2:0] $end
$var reg 6 B maddress [5:0] $end
$var reg 1 * mread $end
$var reg 1 ( mwrite $end
$var reg 32 C mwritedata [31:0] $end
$var reg 3 D next_state [2:0] $end
$var reg 2 E offset [1:0] $end
$var reg 1 F readaccess $end
$var reg 3 G state [2:0] $end
$var reg 3 H tag [2:0] $end
$var reg 1 I valid $end
$var reg 1 J writeaccess $end
$upscope $end
$scope module dm $end
$var wire 6 K address [5:0] $end
$var wire 1 5 clock $end
$var wire 1 * read $end
$var wire 1 6 reset $end
$var wire 1 ( write $end
$var wire 32 L writedata [31:0] $end
$var reg 1 + busywait $end
$var reg 1 M readaccess $end
$var reg 32 N readdata [31:0] $end
$var reg 1 O writeaccess $end
$var integer 32 P i [31:0] $end
$upscope $end
$scope module ins_cache $end
$var wire 10 Q caddress [9:0] $end
$var wire 1 5 clock $end
$var wire 1 R hit $end
$var wire 1 6 reset $end
$var wire 1 S tb1 $end
$var wire 1 T tb2 $end
$var wire 1 U tb3 $end
$var wire 128 V minstruction [127:0] $end
$var wire 1 0 mbusywait $end
$var reg 32 W Cins [31:0] $end
$var reg 1 2 cbusywait $end
$var reg 32 X cinstruction [31:0] $end
$var reg 3 Y index [2:0] $end
$var reg 128 Z ins [127:0] $end
$var reg 6 [ maddress [5:0] $end
$var reg 1 . mread $end
$var reg 3 \ next_state [2:0] $end
$var reg 2 ] offset [1:0] $end
$var reg 1 ^ readaccess $end
$var reg 3 _ state [2:0] $end
$var reg 3 ` tag [2:0] $end
$var reg 1 a valid $end
$upscope $end
$scope module ins_mem $end
$var wire 6 b address [5:0] $end
$var wire 1 5 clock $end
$var wire 1 . read $end
$var reg 1 0 busywait $end
$var reg 1 c readaccess $end
$var reg 128 d readinst [127:0] $end
$upscope $end
$scope module mycpu $end
$var wire 8 e ADDRESS [7:0] $end
$var wire 1 ! BUSYWAIT $end
$var wire 1 5 CLK $end
$var wire 32 f INSTRUCTION [31:0] $end
$var wire 1 % READ $end
$var wire 8 g READDATA [7:0] $end
$var wire 1 6 RESET $end
$var wire 1 # WRITE $end
$var wire 8 h WRITEDATA [7:0] $end
$var wire 1 i select3 $end
$var wire 1 j wire3 $end
$var wire 1 k zero $end
$var wire 3 l writereg [2:0] $end
$var wire 1 m writeenable $end
$var wire 1 n write $end
$var wire 8 o wire5 [7:0] $end
$var wire 10 p wire4 [9:0] $end
$var wire 32 q wire2 [31:0] $end
$var wire 32 r wire1 [31:0] $end
$var wire 1 s select4 $end
$var wire 1 t select2 $end
$var wire 1 u select1 $end
$var wire 8 v regout2 [7:0] $end
$var wire 8 w regout1 [7:0] $end
$var wire 3 x readreg2 [2:0] $end
$var wire 3 y readreg1 [2:0] $end
$var wire 1 z read $end
$var wire 32 { pcnext [31:0] $end
$var wire 8 | output1 [7:0] $end
$var wire 8 } operand2 [7:0] $end
$var wire 32 ~ offset [31:0] $end
$var wire 1 !" jump $end
$var wire 8 "" immediate_offset [7:0] $end
$var wire 8 #" immediate [7:0] $end
$var wire 1 $" beq $end
$var wire 8 %" aluresult [7:0] $end
$var wire 3 &" aluop [2:0] $end
$var wire 32 '" PC [31:0] $end
$scope module extend $end
$var wire 10 (" IN [9:0] $end
$var reg 32 )" OFFSET [31:0] $end
$var reg 1 *" bit1 $end
$upscope $end
$scope module my_alu $end
$var wire 1 k ZERO $end
$var wire 8 +" result4 [7:0] $end
$var wire 8 ," result3 [7:0] $end
$var wire 8 -" result2 [7:0] $end
$var wire 8 ." result1 [7:0] $end
$var wire 3 /" SELECT [2:0] $end
$var wire 8 0" DATA2 [7:0] $end
$var wire 8 1" DATA1 [7:0] $end
$var reg 8 2" RESULT [7:0] $end
$scope module add1 $end
$var wire 8 3" RESULT [7:0] $end
$var wire 8 4" DATA2 [7:0] $end
$var wire 8 5" DATA1 [7:0] $end
$upscope $end
$scope module and1 $end
$var wire 8 6" RESULT [7:0] $end
$var wire 8 7" DATA2 [7:0] $end
$var wire 8 8" DATA1 [7:0] $end
$upscope $end
$scope module forward1 $end
$var wire 8 9" RESULT [7:0] $end
$var wire 8 :" DATA2 [7:0] $end
$upscope $end
$scope module or1 $end
$var wire 8 ;" RESULT [7:0] $end
$var wire 8 <" DATA2 [7:0] $end
$var wire 8 =" DATA1 [7:0] $end
$upscope $end
$upscope $end
$scope module my_control_unit $end
$var wire 1 ! BUSYWAIT $end
$var wire 32 >" INSTRUCTION [31:0] $end
$var wire 3 ?" WRITEREG [2:0] $end
$var wire 1 n WRITE $end
$var wire 1 s SELECT4 $end
$var wire 1 t SELECT2 $end
$var wire 1 u SELECT1 $end
$var wire 3 @" READREG2 [2:0] $end
$var wire 3 A" READREG1 [2:0] $end
$var wire 1 z READ $end
$var wire 1 !" JUMP $end
$var wire 8 B" IMMEDIATE_OFFSET [7:0] $end
$var wire 8 C" IMMEDIATE [7:0] $end
$var wire 1 $" BEQ $end
$var wire 3 D" ALUOP [2:0] $end
$var reg 1 m WRITEENABLE $end
$scope module decoder1 $end
$var wire 1 ! BUSYWAIT $end
$var wire 32 E" INSTRUCTION [31:0] $end
$var reg 3 F" ALUOP [2:0] $end
$var reg 1 $" BEQ $end
$var reg 8 G" IMMEDIATE [7:0] $end
$var reg 8 H" IMMEDIATE_OFFSET [7:0] $end
$var reg 1 !" JUMP $end
$var reg 1 z READ $end
$var reg 3 I" READREG1 [2:0] $end
$var reg 3 J" READREG2 [2:0] $end
$var reg 1 u SELECT1 $end
$var reg 1 t SELECT2 $end
$var reg 1 s SELECT4 $end
$var reg 1 n WRITE $end
$var reg 3 K" WRITEREG [2:0] $end
$var reg 8 L" opcode [7:0] $end
$upscope $end
$upscope $end
$scope module my_mux1 $end
$var wire 1 u SELECT1 $end
$var wire 8 M" b1 [7:0] $end
$var wire 8 N" REGOUT2 [7:0] $end
$var reg 8 O" OUTPUT1 [7:0] $end
$scope module comp $end
$var wire 8 P" OUT [7:0] $end
$var wire 8 Q" IN [7:0] $end
$upscope $end
$upscope $end
$scope module my_mux2 $end
$var wire 8 R" IMMEDIATE [7:0] $end
$var wire 8 S" INPUT1 [7:0] $end
$var wire 1 t SELECT2 $end
$var reg 8 T" OPERAND2 [7:0] $end
$upscope $end
$scope module my_mux3 $end
$var wire 1 i SELECT3 $end
$var wire 32 U" IN1 [31:0] $end
$var wire 32 V" IN0 [31:0] $end
$var reg 32 W" PCNEXT [31:0] $end
$upscope $end
$scope module my_mux4 $end
$var wire 8 X" IN0 [7:0] $end
$var wire 8 Y" IN1 [7:0] $end
$var wire 1 s SELECT4 $end
$var reg 8 Z" OUT [7:0] $end
$upscope $end
$scope module my_reg_file $end
$var wire 1 5 CLK $end
$var wire 8 [" IN [7:0] $end
$var wire 3 \" INADDRESS [2:0] $end
$var wire 8 ]" OUT1 [7:0] $end
$var wire 3 ^" OUT1ADDRESS [2:0] $end
$var wire 8 _" OUT2 [7:0] $end
$var wire 3 `" OUT2ADDRESS [2:0] $end
$var wire 1 6 RESET $end
$var wire 1 m WRITE $end
$var integer 32 a" count [31:0] $end
$upscope $end
$scope module new_adder1 $end
$var wire 32 b" OFFSET [31:0] $end
$var wire 32 c" OUT [31:0] $end
$var wire 32 d" IN [31:0] $end
$upscope $end
$scope module pc_adder1 $end
$var wire 32 e" PCNEXT [31:0] $end
$var wire 32 f" PC [31:0] $end
$upscope $end
$scope module pro_counter1 $end
$var wire 1 ! BUSYWAIT $end
$var wire 1 5 CLK $end
$var wire 32 g" PCNEXT [31:0] $end
$var wire 1 6 RESET $end
$var reg 32 h" PC [31:0] $end
$upscope $end
$scope module shift $end
$var wire 8 i" IMMEDIATE_OFFSET [7:0] $end
$var wire 10 j" OFFSET [9:0] $end
$upscope $end
$upscope $end
$upscope $end
$enddefinitions $end
#0
$dumpvars
bx00 j"
bx i"
bx h"
bx g"
bx f"
bx e"
bx d"
bx c"
b0xxxxxxxx00 b"
bx a"
bx `"
bx _"
bx ^"
bx ]"
bx \"
bx ["
bx Z"
bx Y"
bx X"
bx W"
bx V"
bx U"
bx T"
bx S"
bx R"
bx Q"
bx P"
bx O"
bx N"
bx M"
bx L"
bx K"
bx J"
bx I"
bx H"
bx G"
bx F"
bx E"
bx D"
bx C"
bx B"
bx A"
bx @"
bx ?"
bx >"
bx ="
bx <"
bx ;"
bx :"
bx 9"
bx 8"
bx 7"
bx 6"
bx 5"
bx 4"
bx 3"
bx 2"
bx 1"
bx 0"
bx /"
bx ."
bx -"
bx ,"
bx +"
x*"
b0xxxxxxxx00 )"
bx00 ("
bx '"
bx &"
bx %"
x$"
bx #"
bx ""
x!"
b0xxxxxxxx00 ~
bx }
bx |
bx {
0z
bx y
bx x
bx w
bx v
xu
xt
xs
bx r
bx q
bx00 p
bx o
0n
1m
bx l
xk
xj
xi
bx h
bx g
bx f
bx e
bx d
0c
bx b
xa
bx `
b0 _
x^
bx ]
b0 \
bx [
bx Z
bx Y
bx X
bx W
bx V
xU
xT
xS
xR
bx Q
b100000000 P
0O
bx N
0M
bx L
bx K
0J
xI
bx H
b0 G
0F
bx E
b0 D
bx C
bx B
bx A
x@
bx ?
bx >
bx =
bx <
bx ;
x:
x9
x8
x7
16
05
bx 4
03
02
bx 1
00
bx /
0.
bx -
bx ,
0+
0*
bx )
0(
bx '
bx &
0%
bx $
0#
bx "
0!
$end
#40
15
#50
0m
1!
1^
12
b0 Q
b0 &
b0 '"
b0 f"
b0 h"
b1000 a"
06
#60
b1 \
0R
b100 {
b100 W"
b100 g"
0a
b0 ]
b0 Y
b100 r
b100 V"
b100 d"
b100 e"
#80
05
#120
1c
10
b0 1
b0 [
b0 b
1.
b1 \
b1 _
15
#160
05
#200
15
#240
05
#280
15
#320
05
#360
15
#400
05
#440
15
#480
05
#520
15
#560
05
#600
15
bx00001001 /
bx00001001 V
bx00001001 d
#640
05
#680
15
#720
05
#760
15
#800
05
#840
15
#880
05
#920
15
#960
05
#1000
15
bx0000000000001001 /
bx0000000000001001 V
bx0000000000001001 d
#1040
05
#1080
15
#1120
05
#1160
15
#1200
05
#1240
15
#1280
05
#1320
15
#1360
05
#1400
15
bx000000000000000000001001 /
bx000000000000000000001001 V
bx000000000000000000001001 d
#1440
05
#1480
15
#1520
05
#1560
15
#1600
05
#1640
15
#1680
05
#1720
15
#1760
05
#1800
15
bx00000101000000000000000000001001 /
bx00000101000000000000000000001001 V
bx00000101000000000000000000001001 d
#1840
05
#1880
15
#1920
05
#1960
15
#2000
05
#2040
15
#2080
05
#2120
15
#2160
05
#2200
15
bx0000000100000101000000000000000000001001 /
bx0000000100000101000000000000000000001001 V
bx0000000100000101000000000000000000001001 d
#2240
05
#2280
15
#2320
05
#2360
15
#2400
05
#2440
15
#2480
05
#2520
15
#2560
05
#2600
15
bx000000000000000100000101000000000000000000001001 /
bx000000000000000100000101000000000000000000001001 V
bx000000000000000100000101000000000000000000001001 d
#2640
05
#2680
15
#2720
05
#2760
15
#2800
05
#2840
15
#2880
05
#2920
15
#2960
05
#3000
15
bx00000001000000000000000100000101000000000000000000001001 /
bx00000001000000000000000100000101000000000000000000001001 V
bx00000001000000000000000100000101000000000000000000001001 d
#3040
05
#3080
15
#3120
05
#3160
15
#3200
05
#3240
15
#3280
05
#3320
15
#3360
05
#3400
15
bx0000010100000001000000000000000100000101000000000000000000001001 /
bx0000010100000001000000000000000100000101000000000000000000001001 V
bx0000010100000001000000000000000100000101000000000000000000001001 d
#3440
05
#3480
15
#3520
05
#3560
15
#3600
05
#3640
15
#3680
05
#3720
15
#3760
05
#3800
15
bx000000010000010100000001000000000000000100000101000000000000000000001001 /
bx000000010000010100000001000000000000000100000101000000000000000000001001 V
bx000000010000010100000001000000000000000100000101000000000000000000001001 d
#3840
05
#3880
15
#3920
05
#3960
15
#4000
05
#4040
15
#4080
05
#4120
15
#4160
05
#4200
15
bx00000000000000010000010100000001000000000000000100000101000000000000000000001001 /
bx00000000000000010000010100000001000000000000000100000101000000000000000000001001 V
bx00000000000000010000010100000001000000000000000100000101000000000000000000001001 d
#4240
05
#4280
15
#4320
05
#4360
15
#4400
05
#4440
15
#4480
05
#4520
15
#4560
05
#4600
15
bx0000000000000000000000010000010100000001000000000000000100000101000000000000000000001001 /
bx0000000000000000000000010000010100000001000000000000000100000101000000000000000000001001 V
bx0000000000000000000000010000010100000001000000000000000100000101000000000000000000001001 d
#4640
05
#4680
15
#4720
05
#4760
15
#4800
05
#4840
15
#4880
05
#4920
15
#4960
05
#5000
15
bx000010100000000000000000000000010000010100000001000000000000000100000101000000000000000000001001 /
bx000010100000000000000000000000010000010100000001000000000000000100000101000000000000000000001001 V
bx000010100000000000000000000000010000010100000001000000000000000100000101000000000000000000001001 d
#5040
05
#5080
15
#5120
05
#5160
15
#5200
05
#5240
15
#5280
05
#5320
15
#5360
05
#5400
15
bx00000000000010100000000000000000000000010000010100000001000000000000000100000101000000000000000000001001 /
bx00000000000010100000000000000000000000010000010100000001000000000000000100000101000000000000000000001001 V
bx00000000000010100000000000000000000000010000010100000001000000000000000100000101000000000000000000001001 d
#5440
05
#5480
15
#5520
05
#5560
15
#5600
05
#5640
15
#5680
05
#5720
15
#5760
05
#5800
15
bx0000000100000000000010100000000000000000000000010000010100000001000000000000000100000101000000000000000000001001 /
bx0000000100000000000010100000000000000000000000010000010100000001000000000000000100000101000000000000000000001001 V
bx0000000100000000000010100000000000000000000000010000010100000001000000000000000100000101000000000000000000001001 d
#5840
05
#5880
15
#5920
05
#5960
15
#6000
05
#6040
15
#6080
05
#6120
15
#6160
05
#6200
15
bx000000000000000100000000000010100000000000000000000000010000010100000001000000000000000100000101000000000000000000001001 /
bx000000000000000100000000000010100000000000000000000000010000010100000001000000000000000100000101000000000000000000001001 V
bx000000000000000100000000000010100000000000000000000000010000010100000001000000000000000100000101000000000000000000001001 d
#6240
05
#6280
15
#6320
05
#6360
15
#6400
05
#6440
15
#6480
05
#6520
15
#6560
05
#6600
bx 1
bx [
bx b
0.
b10 _
b10 \
15
0c
00
b1011000000000000000100000000000010100000000000000000000000010000010100000001000000000000000100000101000000000000000000001001 /
b1011000000000000000100000000000010100000000000000000000000010000010100000001000000000000000100000101000000000000000000001001 V
b1011000000000000000100000000000010100000000000000000000000010000010100000001000000000000000100000101000000000000000000001001 d
#6620
xR
1a
b0 `
b1011000000000000000100000000000010100000000000000000000000010000010100000001000000000000000100000101000000000000000000001001 Z
#6629
1R
1U
1T
1S
#6630
0i
0j
b1001 }
b1001 0"
b1001 4"
b1001 7"
b1001 :"
b1001 <"
b1001 T"
1s
0$"
0!"
0t
0u
b1001 #"
b1001 C"
b1001 G"
b1001 R"
b0 l
b0 ?"
b0 K"
b0 \"
b101 L"
b101000000000000000000001001 -
b101000000000000000000001001 W
b101000000000000000000001001 f
b101000000000000000000001001 >"
b101000000000000000000001001 E"
b101000000000000000000001001 X
#6640
0k
b1001 o
b1001 Z"
b1001 ["
b1001 4
b1001 =
b1001 e
b1001 %"
b1001 2"
b1001 Y"
bx1xx1 +"
bx1xx1 ;"
b0x00x ,"
b0x00x 6"
b1001 ."
b1001 9"
b0 &"
b0 /"
b0 D"
b0 F"
05
#6680
1m
0!
b0 \
02
0^
15
#6690
0m
1!
1^
12
b100 Q
b100 &
b100 '"
b100 f"
b100 h"
#6700
b1000 {
b1000 W"
b1000 g"
b1 ]
b1000 r
b1000 V"
b1000 d"
b1000 e"
#6710
b1 }
b1 0"
b1 4"
b1 7"
b1 :"
b1 <"
b1 T"
b1 #"
b1 C"
b1 G"
b1 R"
b1 l
b1 ?"
b1 K"
b1 \"
b101000000010000000000000001 -
b101000000010000000000000001 W
b101000000010000000000000001 f
b101000000010000000000000001 >"
b101000000010000000000000001 E"
b101000000010000000000000001 X
#6720
b1 o
b1 Z"
b1 ["
b1 4
b1 =
b1 e
b1 %"
b1 2"
b1 Y"
bx1 +"
bx1 ;"
b0x ,"
b0x 6"
b1 ."
b1 9"
05
#6760
1m
0!
b0 _
02
0^
15
#6770
0m
1!
1^
12
b1000 Q
b1000 &
b1000 '"
b1000 f"
b1000 h"
#6780
b1100 {
b1100 W"
b1100 g"
b10 ]
b1100 r
b1100 V"
b1100 d"
b1100 e"
#6790
bx o
bx Z"
bx ["
1J
13
bx }
bx 0"
bx 4"
bx 7"
bx :"
bx <"
bx T"
0s
1#
1n
1t
b1 x
b1 @"
b1 J"
b1 `"
b0 y
b0 A"
b0 I"
b0 ^"
b1010 L"
b1010000000000000000000000001 -
b1010000000000000000000000001 W
b1010000000000000000000000001 f
b1010000000000000000000000001 >"
b1010000000000000000000000001 E"
b1010000000000000000000000001 X
#6800
xk
bx 4
bx =
bx e
bx %"
bx 2"
bx Y"
0I
0@
b0 H
b0 ?
b1 E
b0 A
bx +"
bx ;"
bx ,"
bx 6"
bx ."
bx 9"
05
#6809
b10 D
07
#6810
b1 }
b1 0"
b1 4"
b1 7"
b1 :"
b1 <"
b1 T"
b0 D
b1 |
b1 O"
b1 S"
xI
x@
bx H
bx ?
bx E
bx A
b1 v
b1 N"
b1 Q"
b1 _"
b1001 "
b1001 <
b1001 h
b1001 w
b1001 1"
b1001 5"
b1001 8"
b1001 ="
b1001 ]"
#6819
x7
#6820
0k
b1 4
b1 =
b1 e
b1 %"
b1 2"
b1 Y"
b1 ."
b1 9"
b11111111 M"
b11111111 P"
b1001 +"
b1001 ;"
b1 ,"
b1 6"
#6830
1:
19
18
0I
0@
b0 H
b0 ?
b1 E
b0 A
b1010 -"
b1010 3"
#6839
b10 D
07
#6840
1M
1+
b0 ,
b0 B
b0 K
1*
b10 D
b10 G
02
0^
15
#6880
05
#6920
15
#6960
05
#7000
15
#7040
05
#7080
15
#7120
05
#7160
15
#7200
05
#7240
15
#7280
05
#7320
15
bx00000000 )
bx00000000 ;
bx00000000 N
#7360
05
#7400
15
#7440
05
#7480
15
#7520
05
#7560
15
#7600
05
#7640
15
#7680
05
#7720
15
bx0000000000000000 )
bx0000000000000000 ;
bx0000000000000000 N
#7760
05
#7800
15
#7840
05
#7880
15
#7920
05
#7960
15
#8000
05
#8040
15
#8080
05
#8120
15
bx000000000000000000000000 )
bx000000000000000000000000 ;
bx000000000000000000000000 N
#8160
05
#8200
15
#8240
05
#8280
15
#8320
05
#8360
15
#8400
05
#8440
15
#8480
05
#8520
bx ,
bx B
bx K
0*
b11 G
b0 D
15
0M
0+
b0 )
b0 ;
b0 N
#8540
1I
#8549
17
#8559
b0 o
b0 Z"
b0 ["
b0 $
b0 >
b0 g
b0 X"
#8560
05
#8600
0J
0#
0n
0!
b0 G
03
15
#8610
1!
1^
12
b1100 Q
b1100 &
b1100 '"
b1100 f"
b1100 h"
#8620
b10000 {
b10000 W"
b10000 g"
b11 ]
b10000 r
b10000 V"
b10000 d"
b10000 e"
#8630
1J
13
b0 }
b0 0"
b0 4"
b0 7"
b0 :"
b0 <"
b0 T"
1#
1n
0t
b0 #"
b0 C"
b0 G"
b0 R"
b1 y
b1 A"
b1 I"
b1 ^"
b1011 L"
b1011000000000000000100000000 -
b1011000000000000000100000000 W
b1011000000000000000100000000 f
b1011000000000000000100000000 >"
b1011000000000000000100000000 E"
b1011000000000000000100000000 X
#8640
1k
b0 4
b0 =
b0 e
b0 %"
b0 2"
b0 Y"
1@
b100100000000 ?
b0 ,"
b0 6"
b0 ."
b0 9"
05
#8650
b0 E
b1001 -"
b1001 3"
b1 "
b1 <
b1 h
b1 w
b1 1"
b1 5"
b1 8"
b1 ="
b1 ]"
#8660
b1 +"
b1 ;"
#8670
b1 -"
b1 3"
#8680
0J
0#
0n
0!
02
0^
03
15
#8690
1!
1^
12
b10000 Q
b10000 &
b10000 '"
b10000 f"
b10000 h"
#8700
b1 \
0R
b10100 {
b10100 W"
b10100 g"
0a
bx `
bx Z
b0 ]
b1 Y
b10100 r
b10100 V"
b10100 d"
b10100 e"
#8709
xU
xT
xS
#8710
bx X
#8720
05
#8760
1c
10
b1 1
b1 [
b1 b
1.
b1 \
b1 _
15
#8800
05
#8840
15
#8880
05
#8920
15
#8960
05
#9000
15
#9040
05
#9080
15
#9120
05
#9160
15
#9200
05
#9240
15
b1011000000000000000100000000000010100000000000000000000000010000010100000001000000000000000100000101000000000000000000000001 /
b1011000000000000000100000000000010100000000000000000000000010000010100000001000000000000000100000101000000000000000000000001 V
b1011000000000000000100000000000010100000000000000000000000010000010100000001000000000000000100000101000000000000000000000001 d
#9280
05
#9320
15
#9360
05
#9400
15
#9440
05
#9480
15
#9520
05
#9560
15
#9600
05
#9640
15
#9680
05
#9720
15
#9760
05
#9800
15
#9840
05
#9880
15
#9920
05
#9960
15
#10000
05
#10040
15
b1011000000000000000100000000000010100000000000000000000000010000010100000001000000000000000100000101000000100000000000000001 /
b1011000000000000000100000000000010100000000000000000000000010000010100000001000000000000000100000101000000100000000000000001 V
b1011000000000000000100000000000010100000000000000000000000010000010100000001000000000000000100000101000000100000000000000001 d
#10080
05
#10120
15
#10160
05
#10200
15
#10240
05
#10280
15
#10320
05
#10360
15
#10400
05
#10440
15
b1011000000000000000100000000000010100000000000000000000000010000010100000001000000000000000100001000000000100000000000000001 /
b1011000000000000000100000000000010100000000000000000000000010000010100000001000000000000000100001000000000100000000000000001 V
b1011000000000000000100000000000010100000000000000000000000010000010100000001000000000000000100001000000000100000000000000001 d
#10480
05
#10520
15
#10560
05
#10600
15
#10640
05
#10680
15
#10720
05
#10760
15
#10800
05
#10840
15
#10880
05
#10920
15
#10960
05
#11000
15
#11040
05
#11080
15
#11120
05
#11160
15
#11200
05
#11240
15
#11280
05
#11320
15
#11360
05
#11400
15
#11440
05
#11480
15
#11520
05
#11560
15
#11600
05
#11640
15
b1011000000000000000100000000000010100000000000000000000000010000010100000011000000000000000100001000000000100000000000000001 /
b1011000000000000000100000000000010100000000000000000000000010000010100000011000000000000000100001000000000100000000000000001 V
b1011000000000000000100000000000010100000000000000000000000010000010100000011000000000000000100001000000000100000000000000001 d
#11680
05
#11720
15
#11760
05
#11800
15
#11840
05
#11880
15
#11920
05
#11960
15
#12000
05
#12040
15
b1011000000000000000100000000000010100000000000000000000000010000100000000011000000000000000100001000000000100000000000000001 /
b1011000000000000000100000000000010100000000000000000000000010000100000000011000000000000000100001000000000100000000000000001 V
b1011000000000000000100000000000010100000000000000000000000010000100000000011000000000000000100001000000000100000000000000001 d
#12080
05
#12120
15
#12160
05
#12200
15
#12240
05
#12280
15
#12320
05
#12360
15
#12400
05
#12440
15
#12480
05
#12520
15
#12560
05
#12600
15
#12640
05
#12680
15
#12720
05
#12760
15
#12800
05
#12840
15
#12880
05
#12920
15
#12960
05
#13000
15
#13040
05
#13080
15
#13120
05
#13160
15
#13200
05
#13240
15
b1011000000000000000100000000000010100000010000000000000000010000100000000011000000000000000100001000000000100000000000000001 /
b1011000000000000000100000000000010100000010000000000000000010000100000000011000000000000000100001000000000100000000000000001 V
b1011000000000000000100000000000010100000010000000000000000010000100000000011000000000000000100001000000000100000000000000001 d
#13280
05
#13320
15
#13360
05
#13400
15
#13440
05
#13480
15
#13520
05
#13560
15
#13600
05
#13640
15
b1011000000000000000100000000000000010000010000000000000000010000100000000011000000000000000100001000000000100000000000000001 /
b1011000000000000000100000000000000010000010000000000000000010000100000000011000000000000000100001000000000100000000000000001 V
b1011000000000000000100000000000000010000010000000000000000010000100000000011000000000000000100001000000000100000000000000001 d
#13680
05
#13720
15
#13760
05
#13800
15
#13840
05
#13880
15
#13920
05
#13960
15
#14000
05
#14040
15
b1011000000000000000100000010000000010000010000000000000000010000100000000011000000000000000100001000000000100000000000000001 /
b1011000000000000000100000010000000010000010000000000000000010000100000000011000000000000000100001000000000100000000000000001 V
b1011000000000000000100000010000000010000010000000000000000010000100000000011000000000000000100001000000000100000000000000001 d
#14080
05
#14120
15
#14160
05
#14200
15
#14240
05
#14280
15
#14320
05
#14360
15
#14400
05
#14440
15
b1011000000000000010000000010000000010000010000000000000000010000100000000011000000000000000100001000000000100000000000000001 /
b1011000000000000010000000010000000010000010000000000000000010000100000000011000000000000000100001000000000100000000000000001 V
b1011000000000000010000000010000000010000010000000000000000010000100000000011000000000000000100001000000000100000000000000001 d
#14480
05
#14520
15
#14560
05
#14600
15
#14640
05
#14680
15
#14720
05
#14760
15
#14800
05
#14840
15
#14880
05
#14920
15
#14960
05
#15000
15
#15040
05
#15080
15
#15120
05
#15160
15
#15200
05
#15240
bx 1
bx [
bx b
0.
b10 _
b10 \
15
0c
00
#15260
xR
1a
b0 `
b1011000000000000010000000010000000010000010000000000000000010000100000000011000000000000000100001000000000100000000000000001 Z
#15269
1R
1U
1T
1S
#15270
1F
13
b1 }
b1 0"
b1 4"
b1 7"
b1 :"
b1 <"
b1 T"
1%
1z
1t
b10 l
b10 ?"
b10 K"
b10 \"
b1000 L"
b1000000000100000000000000001 -
b1000000000100000000000000001 W
b1000000000100000000000000001 f
b1000000000100000000000000001 >"
b1000000000100000000000000001 E"
b1000000000100000000000000001 X
#15280
0k
b1 4
b1 =
b1 e
b1 %"
b1 2"
b1 Y"
b100100000001 ?
b1 ,"
b1 6"
b1 ."
b1 9"
05
#15290
b1001 o
b1001 Z"
b1001 ["
b1001 $
b1001 >
b1001 g
b1001 X"
b1 E
b10 -"
b10 3"
#15320
0%
0z
1m
b0 \
0!
02
0^
03
0F
15
#15330
0m
1!
1^
12
b10100 Q
b10100 &
b10100 '"
b10100 f"
b10100 h"
#15340
b11000 {
b11000 W"
b11000 g"
b1 ]
b11000 r
b11000 V"
b11000 d"
b11000 e"
#15350
1F
13
1%
1z
b11 l
b11 ?"
b11 K"
b11 \"
b1000000000110000000000000001 -
b1000000000110000000000000001 W
b1000000000110000000000000001 f
b1000000000110000000000000001 >"
b1000000000110000000000000001 E"
b1000000000110000000000000001 X
#15360
05
#15400
0%
0z
1m
0!
b0 _
03
0F
02
0^
15
#15410
0m
1!
1^
12
b11000 Q
b11000 &
b11000 '"
b11000 f"
b11000 h"
#15420
b11100 {
b11100 W"
b11100 g"
b10 ]
b11100 r
b11100 V"
b11100 d"
b11100 e"
#15430
b11111111 }
b11111111 0"
b11111111 4"
b11111111 7"
b11111111 :"
b11111111 <"
b11111111 T"
b1 o
b1 Z"
b1 ["
b11111111 |
b11111111 O"
b11111111 S"
1s
1u
b0 y
b0 A"
b0 I"
b0 ^"
b100 l
b100 ?"
b100 K"
b100 \"
b1 L"
b1000001000000000000000001 -
b1000001000000000000000001 W
b1000001000000000000000001 f
b1000001000000000000000001 >"
b1000001000000000000000001 E"
b1000001000000000000000001 X
#15440
b10 o
b10 Z"
b10 ["
b10 4
b10 =
b10 e
b10 %"
b10 2"
b10 Y"
b11111111 +"
b11111111 ;"
b11111111 ."
b11111111 9"
b1 &"
b1 /"
b1 D"
b1 F"
05
#15450
1k
b0 o
b0 Z"
b0 ["
b0 4
b0 =
b0 e
b0 %"
b0 2"
b0 Y"
b0 -"
b0 3"
b1001 "
b1001 <
b1001 h
b1001 w
b1001 1"
b1001 5"
b1001 8"
b1001 ="
b1001 ]"
#15460
b1001 ,"
b1001 6"
#15470
0k
b1000 o
b1000 Z"
b1000 ["
b1000 4
b1000 =
b1000 e
b1000 %"
b1000 2"
b1000 Y"
b1000 -"
b1000 3"
#15480
1m
0!
02
0^
15
#15490
0m
1!
1^
12
b11100 Q
b11100 &
b11100 '"
b11100 f"
b11100 h"
#15500
b100000 {
b100000 W"
b100000 g"
b11 ]
b100000 r
b100000 V"
b100000 d"
b100000 e"
#15510
b1001 o
b1001 Z"
b1001 ["
1J
13
b1 |
b1 O"
b1 S"
b10 }
b10 0"
b10 4"
b10 7"
b10 :"
b10 <"
b10 T"
0s
1#
1n
0t
0u
b10 #"
b10 C"
b10 G"
b10 R"
b100 y
b100 A"
b100 I"
b100 ^"
b1011 L"
b1011000000000000010000000010 -
b1011000000000000010000000010 W
b1011000000000000010000000010 f
b1011000000000000010000000010 >"
b1011000000000000010000000010 E"
b1011000000000000010000000010 X
#15520
b10 4
b10 =
b10 e
b10 %"
b10 2"
b10 Y"
0I
0@
b0 ?
b0 E
b10 A
b1011 +"
b1011 ;"
b0 ,"
b0 6"
b10 ."
b10 9"
b0 &"
b0 /"
b0 D"
b0 F"
05
#15529
b10 D
07
